{
	"info": {
		"_postman_id": "0c884c81-7b80-4db3-a014-49a1abab49d2",
		"name": "post dv_tc1",
		"schema": "https://schema.getpostman.com/json/collection/v2.1.0/collection.json",
		"_exporter_id": "27794177"
	},
	"item": [
		{
			"name": "DV_TC1",
			"event": [
				{
					"listen": "prerequest",
					"script": {
						"exec": [
							"var Name=pm.variables.replaceIn('{{$randomFullName}}');\r",
							"pm.collectionVariables.set(\"Coll_Name\",Name);\r",
							"\r",
							"\r",
							"var Job=pm.variables.replaceIn('{{$randomJobDescriptor}}');\r",
							"pm.collectionVariables.set(\"Coll_Job\",Job);\r",
							"\r",
							"\r",
							"var PhoneNumber=pm.variables.replaceIn('{{$randomPhoneNumber}}');\r",
							"pm.collectionVariables.set(\"Coll_PhoneNumber\",PhoneNumber);\r",
							"\r",
							"var City=pm.variables.replaceIn('{{$randomCity}}');\r",
							"pm.collectionVariables.set(\"Coll_City\",City);\r",
							"\r",
							"var StreetAddress=pm.variables.replaceIn('{{$randomStreetAddress}}');\r",
							"pm.collectionVariables.set(\"Coll_StreetAddress\",StreetAddress);\r",
							"\r",
							"var AnimalsImage=pm.variables.replaceIn('{{$randomAnimalsImage}}');\r",
							"pm.collectionVariables.set(\"Coll_AnimalsImage\",AnimalsImage);\r",
							"\r",
							"var BankAccount=pm.variables.replaceIn('{{$randomBankAccount}}');\r",
							"pm.collectionVariables.set(\"Coll_BankAccount\",BankAccount);\r",
							"\r",
							"var CompanyName=pm.variables.replaceIn('{{$randomCompanyName}}');\r",
							"pm.collectionVariables.set(\"Coll_CompanyName\",CompanyName);\r",
							"\r",
							"\r",
							"\r",
							"\r",
							"\r",
							"\r",
							"\r",
							"\r",
							"\r",
							"\r",
							"\r",
							""
						],
						"type": "text/javascript"
					}
				},
				{
					"listen": "test",
					"script": {
						"exec": [
							"pm.test(\"Status code is 201\", function() {\r",
							"    pm.response.to.have.status(201);\r",
							"});\r",
							"//Fetch requestbody parameters\r",
							"var requestbody=pm.request.body.raw;\r",
							"console.log(requestbody);\r",
							"requestbody=JSON.parse(requestbody);\r",
							"console.log(requestbody);\r",
							"var req_name=requestbody.name;\r",
							"console.log(req_name);\r",
							"var req_job=requestbody.job;\r",
							"console.log(req_job);\r",
							"//Fetch responsebody\r",
							"var responsebody=pm.response.json();\r",
							"console.log(responsebody);\r",
							"//Fetch responsebody parameters\r",
							"var res_name=responsebody.name;\r",
							"var res_job=responsebody.job;\r",
							"var res_id=responsebody.id;\r",
							"var res_createdAt=responsebody.createdAt;\r",
							"\r",
							"//validate responsebody\r",
							"pm.test(\"validate responsebody:name\", function() {\r",
							"    pm.expect(res_name).to.eqls(req_name);\r",
							"});\r",
							"pm.test(\"validate responsebody:job\", function() {\r",
							"    pm.expect(res_job).to.eqls(req_job);\r",
							"});\r",
							"pm.test(\"validate responsebody:id\", function() {\r",
							"    pm.expect(res_id).to.not.null;\r",
							"});\r",
							"\r",
							"//Fetch createdAt from response\r",
							"var date=new Date().toISOString().slice(0,13);\r",
							"console.log(date);\r",
							"pm.test(\"validate responsebody:createdAt\", function() {\r",
							"    pm.expect(res_createdAt.slice(0,13)).eqls(date);\r",
							"});"
						],
						"type": "text/javascript"
					}
				}
			],
			"request": {
				"method": "POST",
				"header": [],
				"body": {
					"mode": "raw",
					"raw": "{\r\n    \"name\": \"{{Coll_Name}}\",\r\n    \"job\": \"{{Coll_Job}}\",\r\n    \"phonenumber\": \"{{Coll_PhoneNumber}}\",\r\n    \"City\": \"{{Coll_City}}\",\r\n    \"streetaddress\": \"{{Coll_StreetAddress}}\",\r\n    \"animalsimage\": \"{{Coll_AnimalsImage}}\",\r\n     \"bankaccount\": \"{{Coll_BankAccount}}\",\r\n    \"companyname\": \"{{Coll_CompanyName}}\"\r\n\r\n}",
					"options": {
						"raw": {
							"language": "json"
						}
					}
				},
				"url": {
					"raw": "{{Post_URL}}",
					"host": [
						"{{Post_URL}}"
					]
				}
			},
			"response": []
		},
		{
			"name": "DATA_DRIVEN FROM EXCEL",
			"event": [
				{
					"listen": "prerequest",
					"script": {
						"exec": [
							"\r",
							"\r",
							"\r",
							"\r",
							"\r",
							""
						],
						"type": "text/javascript"
					}
				},
				{
					"listen": "test",
					"script": {
						"exec": [
							"pm.test(\"Status code is 201\", function() {\r",
							"    pm.response.to.have.status(201);\r",
							"});\r",
							"//Fetch requestbody parameters\r",
							"var requestbody=pm.request.body.raw;\r",
							"console.log(requestbody);\r",
							"requestbody=JSON.parse(requestbody);\r",
							"console.log(requestbody);\r",
							"var req_name=requestbody.name;\r",
							"console.log(req_name);\r",
							"var req_job=requestbody.job;\r",
							"console.log(req_job);\r",
							"//Fetch responsebody\r",
							"var responsebody=pm.response.json();\r",
							"console.log(responsebody);\r",
							"//Fetch responsebody parameters\r",
							"var res_name=responsebody.name;\r",
							"var res_job=responsebody.job;\r",
							"var res_id=responsebody.id;\r",
							"var res_createdAt=responsebody.createdAt;\r",
							"\r",
							"//validate responsebody\r",
							"pm.test(\"validate responsebody:name\", function() {\r",
							"    pm.expect(res_name).to.eqls(req_name);\r",
							"});\r",
							"pm.test(\"validate responsebody:job\", function() {\r",
							"    pm.expect(res_job).to.eqls(req_job);\r",
							"});\r",
							"pm.test(\"validate responsebody:id\", function() {\r",
							"    pm.expect(res_id).to.not.null;\r",
							"});\r",
							"\r",
							"//Fetch createdAt from response\r",
							"var date=new Date().toISOString().slice(0,13);\r",
							"console.log(date);\r",
							"pm.test(\"validate responsebody:createdAt\", function() {\r",
							"    pm.expect(res_createdAt.slice(0,13)).eqls(date);\r",
							"});"
						],
						"type": "text/javascript"
					}
				}
			],
			"request": {
				"method": "POST",
				"header": [],
				"body": {
					"mode": "raw",
					"raw": "{\r\n    \"name\": \"{{name}}\",\r\n    \"job\": \"{{job}}\",\r\n    \"phonenumber\": \"{{phoneno}}\",\r\n    \"City\": \"{{city}}\"\r\n\r\n}",
					"options": {
						"raw": {
							"language": "json"
						}
					}
				},
				"url": {
					"raw": "{{Post_URL}}",
					"host": [
						"{{Post_URL}}"
					]
				}
			},
			"response": []
		},
		{
			"name": "date_driven from json",
			"event": [
				{
					"listen": "prerequest",
					"script": {
						"exec": [
							"\r",
							"\r",
							"\r",
							"\r",
							"\r",
							""
						],
						"type": "text/javascript"
					}
				},
				{
					"listen": "test",
					"script": {
						"exec": [
							"pm.test(\"Status code is 201\", function() {\r",
							"    pm.response.to.have.status(201);\r",
							"});\r",
							"//Fetch requestbody parameters\r",
							"var requestbody=pm.request.body.raw;\r",
							"console.log(requestbody);\r",
							"requestbody=JSON.parse(requestbody);\r",
							"console.log(requestbody);\r",
							"var req_name=requestbody.name;\r",
							"console.log(req_name);\r",
							"var req_job=requestbody.job;\r",
							"console.log(req_job);\r",
							"//Fetch responsebody\r",
							"var responsebody=pm.response.json();\r",
							"console.log(responsebody);\r",
							"//Fetch responsebody parameters\r",
							"var res_name=responsebody.name;\r",
							"var res_job=responsebody.job;\r",
							"var res_id=responsebody.id;\r",
							"var res_createdAt=responsebody.createdAt;\r",
							"\r",
							"//validate responsebody\r",
							"pm.test(\"validate responsebody:name\", function() {\r",
							"    pm.expect(res_name).to.eqls(req_name);\r",
							"});\r",
							"pm.test(\"validate responsebody:job\", function() {\r",
							"    pm.expect(res_job).to.eqls(req_job);\r",
							"});\r",
							"pm.test(\"validate responsebody:id\", function() {\r",
							"    pm.expect(res_id).to.not.null;\r",
							"});\r",
							"\r",
							"//Fetch createdAt from response\r",
							"var date=new Date().toISOString().slice(0,13);\r",
							"console.log(date);\r",
							"pm.test(\"validate responsebody:createdAt\", function() {\r",
							"    pm.expect(res_createdAt.slice(0,13)).eqls(date);\r",
							"});"
						],
						"type": "text/javascript"
					}
				}
			],
			"request": {
				"method": "POST",
				"header": [],
				"body": {
					"mode": "raw",
					"raw": "{\r\n    \"name\": \"{{name}}\",\r\n    \"job\": \"{{job}}\",\r\n    \"phonenumber\": \"{{phonenumber}}\",\r\n    \"City\": \"{{city}}\"\r\n\r\n}",
					"options": {
						"raw": {
							"language": "json"
						}
					}
				},
				"url": {
					"raw": "{{Post_URL}}",
					"host": [
						"{{Post_URL}}"
					]
				}
			},
			"response": []
		}
	],
	"variable": [
		{
			"key": "Coll_Name",
			"value": ""
		},
		{
			"key": "Coll_Job",
			"value": ""
		},
		{
			"key": "Coll_PhoneNumber",
			"value": ""
		},
		{
			"key": "Coll_City",
			"value": ""
		},
		{
			"key": "Coll_Address",
			"value": ""
		},
		{
			"key": "Coll_StreetAddress",
			"value": ""
		},
		{
			"key": "Coll_AnimalsImage",
			"value": ""
		},
		{
			"key": "Coll_BankAccount",
			"value": ""
		},
		{
			"key": "Coll_CompanyName",
			"value": ""
		}
	]
}