[
   {
      "name":"Aishu",
      "job":"Tester",
      "phonenumber":"6489763564",
      "city":"Mumbai"
   },
   {
      "name":"Abhi",
      "job":"Developer",
      "phonenumber":"7454373772",
      "city":"Dehli"
   },
   {
      "name":"Vedant",
      "job":"PDO",
      "phonenumber":"9474423368",
      "city":"Pune"
   }
]