{
	"info": {
		"_postman_id": "4f8b46e4-0307-4008-813d-ef150cae746b",
		"name": "Post_Reference",
		"schema": "https://schema.getpostman.com/json/collection/v2.1.0/collection.json",
		"_exporter_id": "27794177"
	},
	"item": [
		{
			"name": "post_tc1",
			"event": [
				{
					"listen": "test",
					"script": {
						"exec": [
							"pm.test(\"Status code is 201\", function () {\r",
							"    pm.response.to.have.status(201);\r",
							"});\r",
							"//Fetch the requestbody\r",
							"var requestbody=pm.request.body.raw;\r",
							"console.log(requestbody);\r",
							"requestbody=JSON.parse(requestbody);\r",
							"console.log(requestbody);\r",
							"\r",
							"//Fetch the requestbody parameters\r",
							"var req_name=requestbody.name;\r",
							"console.log(req_name);\r",
							"var req_job=requestbody.job;\r",
							"console.log(req_job);\r",
							"\r",
							"//Fetch the responsebody\r",
							"var responsebody=pm.response.json();\r",
							"console.log(responsebody);\r",
							"//Fetch the responsebody parameters\r",
							"var res_name=responsebody.name;\r",
							"var res_job=responsebody.job;\r",
							"var res_id=responsebody.id;\r",
							"var res_createdAt=responsebody.createdAt;\r",
							"\r",
							"//validate the responsebody\r",
							"pm.test(\"validate responsebody:name\", function() {\r",
							"    pm.expect(res_name).to.eqls(req_name);\r",
							"});\r",
							"pm.test(\"validate responsebody:job\", function() {\r",
							"    pm.expect(res_job).to.eqls(req_job);\r",
							"});\r",
							"pm.test(\"validate responsebody:id\", function() {\r",
							"    pm.expect(res_id).to.not.null;\r",
							"});\r",
							"//Fetch the createdAt from response\r",
							"var todaydate=new Date().toISOString().slice(0,13);\r",
							"console.log(todaydate);\r",
							"pm.test(\"validate responsebody:createdAt\", function() {\r",
							"    pm.expect(res_createdAt.slice(0,13)).eqls(todaydate);\r",
							"});\r",
							"\r",
							""
						],
						"type": "text/javascript"
					}
				}
			],
			"request": {
				"method": "POST",
				"header": [
					{
						"key": "authentication",
						"value": "token",
						"type": "text"
					}
				],
				"body": {
					"mode": "raw",
					"raw": "{\r\n    \"name\": \"Aishu\",\r\n    \"job\": \"SrManager\"\r\n}",
					"options": {
						"raw": {
							"language": "json"
						}
					}
				},
				"url": {
					"raw": "{{Post_URL}}",
					"host": [
						"{{Post_URL}}"
					]
				}
			},
			"response": []
		},
		{
			"name": "POST_TC2",
			"event": [
				{
					"listen": "test",
					"script": {
						"exec": [
							"pm.test(\"Status code is 201\", function () {\r",
							"    pm.response.to.have.status(201);\r",
							"});\r",
							"\r",
							"//fetch the requestbody parameters\r",
							"var requestbody=pm.request.body.raw;\r",
							"console.log(requestbody);\r",
							"requestbody=JSON.parse(requestbody);\r",
							"console.log(requestbody);\r",
							"var req_name=requestbody.name;\r",
							"console.log(req_name);\r",
							"var req_job=requestbody.job;\r",
							"console.log(req_job);\r",
							"\r",
							"//fetch the responsebody\r",
							"var responsebody=pm.response.json();\r",
							"console.log(responsebody);\r",
							"\r",
							"//fetch the responsebody parameters\r",
							"var res_name=responsebody.name;\r",
							"var res_job=responsebody.job;\r",
							"var res_id=responsebody.id;\r",
							"var res_createdAt=responsebody.createdAt;\r",
							"\r",
							"//validate the responsebody\r",
							"pm.test(\"validate the responsebody:name\", function() {\r",
							"    pm.expect(res_name).to.eqls(req_name);\r",
							"});\r",
							"pm.test(\"validate the responsebody:job\", function() {\r",
							"    pm.expect(res_job).to.eqls(req_job);\r",
							"});\r",
							"pm.test(\"validate the responsebody:id\", function() {\r",
							"    pm.expect(res_id).to.not.null;\r",
							"});\r",
							"\r",
							"//fetch the creadAt from response\r",
							"var todaydate=new Date().toISOString().slice(0,13);\r",
							"console.log(todaydate);\r",
							"pm.test(\"validate the responsebody:createdAt\", function() {\r",
							"    pm.expect(res_createdAt.slice(0,13)).to.eqls(todaydate);\r",
							"});\r",
							"\r",
							""
						],
						"type": "text/javascript"
					}
				},
				{
					"listen": "prerequest",
					"script": {
						"exec": [
							""
						],
						"type": "text/javascript"
					}
				}
			],
			"request": {
				"method": "POST",
				"header": [],
				"body": {
					"mode": "raw",
					"raw": "{\r\n    \"name\": \"morpheus\",\r\n    \"job\": \"leader\"\r\n}",
					"options": {
						"raw": {
							"language": "json"
						}
					}
				},
				"url": {
					"raw": "{{Post_URL}}",
					"host": [
						"{{Post_URL}}"
					]
				}
			},
			"response": []
		},
		{
			"name": "req_res_chaining",
			"event": [
				{
					"listen": "test",
					"script": {
						"exec": [
							"var responsebody=pm.response.json();\r",
							"console.log(responsebody);\r",
							"\r",
							"var statuscode=pm.response.status;\r",
							"console.log(statuscode);\r",
							"\r",
							"/*if (statuscode != \"Created\")\r",
							"{\r",
							"    postman.setNextRequest(\"req_res_chaining\")\r",
							"}*/\r",
							"\r",
							"//Initialize or increment the counter variable\r",
							"var counter = pm.variables.get(\"counter\") || 0;\r",
							"counter++;\r",
							"pm.variables.set(\"counter\", counter);\r",
							"\r",
							"if (statuscode != \"Created\" && counter < 4)\r",
							"{\r",
							"    postman.setNextRequest(\"req_res_chaining\");\r",
							"}\r",
							"else{\r",
							"    postman.setNextRequest(null);\r",
							"}"
						],
						"type": "text/javascript"
					}
				},
				{
					"listen": "prerequest",
					"script": {
						"exec": [
							""
						],
						"type": "text/javascript"
					}
				}
			],
			"request": {
				"method": "POST",
				"header": [],
				"body": {
					"mode": "raw",
					"raw": "{\r\n    \"name\": \"morpheus\",\r\n    \"job\": \"leader\"\r\n}",
					"options": {
						"raw": {
							"language": "json"
						}
					}
				},
				"url": {
					"raw": "{{Post_URL}}",
					"host": [
						"{{Post_URL}}"
					]
				}
			},
			"response": []
		}
	],
	"variable": [
		{
			"key": "Coll_Name",
			"value": ""
		}
	]
}